<?xml version="1.0" encoding="UTF-8"?>
<svg width="40px" height="40px" viewBox="0 0 40 40" version="1.1" xmlns="http://www.w3.org/2000/svg" xmlns:xlink="http://www.w3.org/1999/xlink">
    <!-- Generator: Sketch 52.2 (67145) - http://www.bohemiancoding.com/sketch -->
    <title>btn-edit-default</title>
    <desc>Created with Sketch.</desc>
    <g id="btn-edit-default" stroke="none" stroke-width="1" fill="none" fill-rule="evenodd">
        <rect id="Rectangle-4" fill="#F2F2F2" x="0" y="0" width="40" height="40" rx="2.72727273"></rect>
        <path d="M18.7591858,7.55174169 L21.2408142,7.55174169 C22.4451486,7.55174169 23.4214545,8.52804764 23.4214545,9.73238206 L23.4214545,11.8285599 L16.5785455,11.8285599 L16.5785455,9.73238206 C16.5785455,8.52804764 17.5548514,7.55174169 18.7591858,7.55174169 Z M16.5785455,12.8925028 L23.4214545,12.8925028 L23.4214545,26.902376 L16.5785455,26.902376 L16.5785455,12.8925028 Z M16.5785455,28.080469 L23.4214545,28.080469 L21.0441593,32.9286352 C20.7790442,33.4693009 20.1258299,33.6926788 19.5851642,33.4275637 C19.3753231,33.3246683 19.2040976,33.1570692 19.0967344,32.9494786 L16.5785455,28.080469 Z" id="Combined-Shape" fill="#0099D8" transform="translate(20.000000, 20.545455) rotate(-315.000000) translate(-20.000000, -20.545455) "></path>
    </g>
</svg>