<?xml version="1.0" encoding="UTF-8"?>
<svg width="10px" height="5px" viewBox="0 0 10 5" version="1.1" xmlns="http://www.w3.org/2000/svg" xmlns:xlink="http://www.w3.org/1999/xlink">
    <!-- Generator: Sketch 52.2 (67145) - http://www.bohemiancoding.com/sketch -->
    <title>arrow-blue-down</title>
    <desc>Created with Sketch.</desc>
    <g id="Symbols" stroke="none" stroke-width="1" fill="none" fill-rule="evenodd">
        <g id="icon-select-arrows" fill="#009ADA">
            <g id="arrow-blue-up">
                <path d="M9.68368818,5 L0.317257751,5 C-0.0148600342,5 -0.104180464,4.80910379 0.135302606,4.57362138 L4.63626548,0.147848927 C4.83608017,-0.0486277798 5.16353421,-0.0499370849 5.36468046,0.147848927 L9.86564333,4.57362138 C10.0980172,4.80211337 10.0236623,5 9.68368818,5 Z" id="Rectangle-10-Copy"></path>
            </g>
        </g>
    </g>
</svg>