<?xml version="1.0" encoding="UTF-8"?>
<svg width="64px" height="28px" viewBox="0 0 64 28" version="1.1" xmlns="http://www.w3.org/2000/svg" xmlns:xlink="http://www.w3.org/1999/xlink">
    <!-- Generator: Sketch 52.2 (67145) - http://www.bohemiancoding.com/sketch -->
    <title>tag-draft</title>
    <desc>Created with Sketch.</desc>
    <g id="tag-draft" stroke="none" stroke-width="1" fill="none" fill-rule="evenodd">
        <rect id="Rectangle-7" fill="#000435" x="0" y="0" width="64" height="28" rx="4"></rect>
        <path d="M10.027,9.2 L13.989,9.2 C16.845,9.2 19.029,11.314 19.029,14.1 C19.029,16.886 16.831,19 13.947,19 L10.027,19 L10.027,9.2 Z M11.147,10.278 L11.147,17.936 L14.003,17.936 C16.187,17.936 17.895,16.298 17.895,14.114 C17.895,11.916 16.159,10.278 13.961,10.278 L11.147,10.278 Z M27.485,19 L25.455,15.878 C25.245,15.892 25.021,15.906 24.797,15.906 L22.193,15.906 L22.193,19 L21.073,19 L21.073,9.2 L24.797,9.2 C27.247,9.2 28.661,10.404 28.661,12.49 C28.661,14.114 27.877,15.206 26.463,15.668 L28.759,19 L27.485,19 Z M22.193,14.828 L24.797,14.828 C26.575,14.828 27.583,14.044 27.583,12.518 C27.583,11.034 26.575,10.278 24.797,10.278 L22.193,10.278 L22.193,14.828 Z M37.397,16.522 L32.049,16.522 L30.957,19 L29.767,19 L34.163,9.2 L35.325,9.2 L39.707,19 L38.489,19 L37.397,16.522 Z M36.921,15.444 L34.709,10.474 L32.525,15.444 L36.921,15.444 Z M47.477,10.278 L42.367,10.278 L42.367,13.722 L46.945,13.722 L46.945,14.8 L42.367,14.8 L42.367,19 L41.247,19 L41.247,9.2 L47.477,9.2 L47.477,10.278 Z M55.317,10.278 L52.111,10.278 L52.111,19 L50.991,19 L50.991,10.278 L47.799,10.278 L47.799,9.2 L55.317,9.2 L55.317,10.278 Z" id="DRAFT" fill="#FFFFFF"></path>
    </g>
</svg>