<?xml version="1.0" encoding="UTF-8"?>
<svg width="108px" height="14px" viewBox="0 0 108 14" version="1.1" xmlns="http://www.w3.org/2000/svg" xmlns:xlink="http://www.w3.org/1999/xlink">
    <!-- Generator: Sketch 52.2 (67145) - http://www.bohemiancoding.com/sketch -->
    <title>logo-cityportal</title>
    <desc>Created with Sketch.</desc>
    <g id="logo-cityportal" stroke="none" stroke-width="1" fill="none" fill-rule="evenodd">
        <path d="M10.35,4.738 C9.522,3.73 8.316,3.082 7.218,3.082 C5.274,3.082 3.798,4.612 3.798,6.628 C3.798,8.662 5.274,10.21 7.218,10.21 C8.262,10.21 9.468,9.634 10.35,8.734 L12.276,10.804 C10.926,12.226 8.91,13.144 7.038,13.144 C3.24,13.144 0.414,10.372 0.414,6.664 C0.414,3.028 3.312,0.292 7.164,0.292 C9.036,0.292 10.998,1.12 12.258,2.452 L10.35,4.738 Z M13.32,0.382 L16.614,0.382 L16.614,13 L13.32,13 L13.32,0.382 Z M17.604,0.382 L27.1091468,0.382 L28.5531854,3.1 L24.642,3.1 L24.642,13 L21.348,13 L21.348,3.1 L17.604,3.1 L17.604,0.382 Z M40.572,0.382 L36.018,8.968 L36.018,13 L32.724,13 L32.724,9.058 L28.08,0.382 L31.374,0.382 L34.362,5.8 L37.278,0.382 L40.572,0.382 Z M46.7100001,0.418 C49.8060001,0.418 51.5520001,1.93 51.5520001,4.558 C51.5520001,7.258 49.8060001,8.806 46.7100001,8.806 L43.0380001,8.806 L43.0380001,13 L42.2820001,13 L42.2820001,0.418 L46.7100001,0.418 Z M46.6920001,8.068 C49.3200001,8.068 50.8320001,6.826 50.8320001,4.576 C50.8320001,2.362 49.3200001,1.156 46.6920001,1.156 L43.0380001,1.156 L43.0380001,8.068 L46.6920001,8.068 Z M59.0769474,0.4 C62.6769474,0.4 65.5929474,3.208 65.5929474,6.7 C65.5929474,10.192 62.6769474,13.018 59.0769474,13.018 C55.4769474,13.018 52.5609474,10.192 52.5609474,6.7 C52.5609474,3.208 55.4769474,0.4 59.0769474,0.4 Z M59.0769474,1.138 C55.9269474,1.138 53.3349474,3.622 53.3349474,6.7 C53.3349474,9.778 55.9269474,12.28 59.0769474,12.28 C62.2269474,12.28 64.8189474,9.778 64.8189474,6.7 C64.8189474,3.622 62.2269474,1.138 59.0769474,1.138 Z M77.6178948,13 L76.7178948,13 L73.7478948,8.734 C73.4058948,8.788 73.0638948,8.806 72.6858948,8.806 L68.9958948,8.806 L68.9958948,13 L68.2398948,13 L68.2398948,0.418 L72.6858948,0.418 C75.7998948,0.418 77.5638948,1.93 77.5638948,4.558 C77.5638948,6.7 76.4658948,8.104 74.4678948,8.608 L77.6178948,13 Z M68.9958948,8.068 L72.7038948,8.068 C75.3318948,8.068 76.8258948,6.826 76.8258948,4.576 C76.8258948,2.362 75.3318948,1.156 72.7038948,1.156 L68.9958948,1.156 L68.9958948,8.068 Z M78.9508422,0.418 L88.2028422,0.418 L88.2028422,1.156 L83.9548422,1.156 L83.9548422,13 L83.1988422,13 L83.1988422,1.156 L78.9508422,1.156 L78.9508422,0.418 Z M98.5537896,13 L96.9157896,9.418 L89.5537896,9.418 L87.9337896,13 L87.1057896,13 L92.8117896,0.418 L93.6217896,0.418 L99.3817896,13 L98.5537896,13 Z M89.8777896,8.662 L96.5737896,8.662 L93.2077896,1.282 L89.8777896,8.662 Z M101.344737,0.418 L102.100737,0.418 L102.100737,12.262 L107.698737,12.262 L107.698737,13 L101.344737,13 L101.344737,0.418 Z" id="CITYPORTAL" fill="#3187BC"></path>
    </g>
</svg>
